{
  "type": "service_account",
  "project_id": "chat-group-839f6",
  "private_key_id": "8dd9302e88c4566c2e71dbd72fe7d784216b1bb7",
  "private_key": "-----BEGIN PRIVATE KEY-----\nMIIEvQIBADANBgkqhkiG9w0BAQEFAASCBKcwggSjAgEAAoIBAQC4sAXdd7hwiqkV\n0amqxHbqpC62Yijofh7sTdq14r1roFq5N3x4Rrfv6FD9BY7iCzz/HspDwPr7as7y\nFvmqtII24bo5z4qkNDFNCkl9Flz5ZJ8IyxS+FLpjcuVxjkJhxqWW76AXGmeJvasb\n4XYCDBwzjzVj/7ajTzog5vhOWkOmKmQwQq6plHp21NZxhAmG0kI6PAyvUoq88E/g\nxQJICSZz4J/z5glzJPZ82mN7ywpCj7B2jhLmcQ9it3NsGN2Pb57pSTkmyTM+/aB2\naF27VDGrs7DNqWxJBEW3XIrC4TcnRej4Op9yB5l/LMAi5fIMY2h60N2YxzVvk0wY\nFOmLg1U9AgMBAAECggEAQYNTOUngF6/gJdi/Pk+9vSMrXM/6IeqnLny5gf6h4b06\noWwAz6uKUORQYkin9CA3bWovJpSckzXCnhavTrIEZNJynFI2JGRNPr5Q7jnSFjdu\nwJBFVd4FdgSKRltHyeZM0/tBhyB7LN2mhlfWZAiGsnVw432QfGK8xHIaD7UuPRE9\nd4rDbjLLqHoLnz1fLNn07bUTKGnjAMWIHD2MPOCNq8yHsnQGxKnC9Rs028KaMTKB\nfch9yoN7hJW/SiJrA0nlGxwIUxoiUV5Zs9Ep0wXX6kPdHFCoZvAHvFJ0WnO01LgW\na7i7ok87NsiB+4xHTxQ2hJmWn7cJtY7OFqHU+F/NkwKBgQD9HuptalsvovhqKQZA\n74dA7HpNn6tMgdS9FXjHmoIcAjtMOqtgh60TuPRN8vL9Kfwa4P65fcNYiMikzMFm\nm3alsX+HNFSAwFmY256xQDpPJPhars9Y6CaAvMnwuwD68W+9M0huWwiJTXffwSVE\nVdb5q4899VU9nwX7FDUoXrDCiwKBgQC6ydSoMq8o/vQ5ZNSkIi35e8PAgmRE9+xq\nhT5cI3CrZWG9x5pOnURG65V/yJkV3oT2wYDXF/VDk93RLEliX/vxQDA+lw6mh7qv\nnKZ4+HFQmExane6h8YDZTCWhkciDKqIC6slxlK1Tr6icnSBKkZTNBM5kaExc8+Zy\nCmZFEBKoVwKBgQCaGadJI7YOI16vavh2sh0a5p1zAqFMO8Kjtx3ID4XkvWsSdql9\nZDx3xGNfzWgnvtbQGmiZzzoNfYEB6/JWoJE0QQLN8or7s58Yk6RibyLQqkZVFxX/\nH57JQ6aB26e2HyUS/9S58swYo0Q2wiUJHGV7rPnRE7pogJcoi93tDPD6DwKBgC9k\nTiRu16pbJbP6NUl/spJ+KGiLrM0i6kUMkYnnJAsYqffw0OHpXQ1xcHj/eHfoAWxq\nJDpuxbfjqIAN8ICZQd8wHg2DXiA6h89Ou54tyvJb8eN79rP4Bm0buOCJkIpXIswC\nriG3S1LUWr+BzlOdJFfwRD2NiPJ8n5eHs/MJ5PH5AoGAR9y2uEXgGh/9o/lwQn7w\ntpBSiFPresbL2qDEnpr2om/jab3orFDTcsKNwzlV8E5bPk1SslI8fNU29O7oZI/7\nyKqN6FnPOLvelTbwRnmSuWTK97hiHgaquQwDHkZq90BR0PoBW1gAuaGuy1zAtJ2H\nCfmtM7fwmAVSX7PcCsbE+GY=\n-----END PRIVATE KEY-----\n",
  "client_email": "firebase-adminsdk-ide94@chat-group-839f6.iam.gserviceaccount.com",
  "client_id": "108042931617248598263",
  "auth_uri": "https://accounts.google.com/o/oauth2/auth",
  "token_uri": "https://oauth2.googleapis.com/token",
  "auth_provider_x509_cert_url": "https://www.googleapis.com/oauth2/v1/certs",
  "client_x509_cert_url": "https://www.googleapis.com/robot/v1/metadata/x509/firebase-adminsdk-ide94%40chat-group-839f6.iam.gserviceaccount.com"
}
